Welcome,I_0
Owner Basics,I_1
Managing Your Personal Cloud,B_2
About Managing Your Personal Cloud,I_3
Users,B_4
About Users,I_5
Setting Up Other Users,I_6
Adding a User Account,I_7
Adding/Changing a User Password,I_8
Viewing User Information,I_9
Setting User Quotas,I_10
Assigning User Quotas,I_11
Single User,B_12
Adding a User Account,I_13
Deleting a User Account,I_14
Groups,B_15
What Are User Groups?,I_16
Creating a User Group,I_17
Assigning Share Access for a Group,I_18
Viewing Group Information,I_19
Editing a Group Profile,I_20
Deleting a Group,I_21
Shares,B_22
Creating a Share,I_23
Making a Share Private,I_24
Deleting a Share,I_25
Changing Access to a Share,I_26
Cloud Access,B_27
About Cloud Access,I_28
Setting Up Remote Access,I_29
Adding a Mobile Device,I_30
Performing One-Time Setup for Secure Access,I_31
Removing a Device,I_32
Checking Remote Access Status,I_33
Backing Up your Personal Cloud,B_34
USB Backups,B_35
Creating a USB Backup,I_36
Deleting a USB Backup Job,I_37
Copying your USB Drive,I_38
Remote Backups,B_39
Creating a Remote Backup,I_40
Recovering a Remote Backup,I_41
Internal Backups,B_42
Creating an Internal Backup,I_43
Initiating an Immediate Internal Backup,I_44
Viewing the Details of an Internal Backup Job,I_45
Modifying an Internal Backup Job,I_46
Deleting an Internal Backup Job,I_47
Cloud Backups,B_48
About Cloud Backups,I_49
Enabling an ElephantDrive Cloud Backup,I_50
Backing Up with ElephantDrive,I_51
Creating an Amazon S3 Cloud Backup,I_52
Camera Backups,B_53
Creating a Camera Backup,I_54
Managing Apps,B_55
What are Apps?,I_56
Adding Apps,I_57
Deleting an App,I_58
HTTP Download App,B_59
Scheduling an HTTP Download,I_60
Modifying an HTTP Download,I_61
Deleting an HTTP Download,I_62
FTP Download App,B_63
Scheduling an FTP Download,I_64
Modifying an FTP Download,I_65
Deleting an FTP Download,I_66
P2P Download App,B_67
Creating a P2P Download,I_68
Web File Viewer,B_69
Managing Web Files,I_70
Storage,B_71
RAID Storage,B_72
What is RAID Storage?,I_73
Viewing the Current RAID Mode,I_74
Changing the RAID Mode,I_75
Disk Status,B_76
About Disk Status,I_77
Viewing Hard Drive Information,I_78
ISCSI,B_79
What is ISCSI?,I_80
Creating an iSCSI Target,I_81
Enabling / Disabling an iSCSI Target,I_82
Enabling iSCSI iSNS Client,I_83
Modifying an iSCSI Target,I_84
Deleting an iSCSI Target,I_85
Volume Virtualization,B_86
Creating Volume Virtualization,I_87
Connecting a Virtualized Volume to a Target,I_88
Modifying a Virtualized Volume,I_89
Configuring WD My Cloud (Settings),B_90
General,B_91
About General Settings,I_92
Changing the Device Name,I_93
Changing the Device Description,I_94
Setting the Displayed Language,I_95
Setting the Date and Time,I_96
Turning Cloud Access On/Off ,I_97
Checking Remote Access Status,I_98
Checking the Status of Your Network,I_99
Configuring Connection Options,I_100
Enabling Port Forwarding,I_101
Minimizing Power Consumption,I_102
Scheduling Device Shutdowns,I_103
Turning the Front LEDs On/Off ,I_104
Turning On/Off Sleep Mode,I_105
Backing Up Your Data with Time Machine,I_106
Turning Off Time Machine Backups,I_107
Setting Energy Saver Modes,I_108
Network,B_109
About Network Settings,I_110
Finding Out the Device's MAC and IP Address,I_111
Changing the IPv4 Network Mode,I_112
Changing the IPv6 Network Mode,I_113
Enabling/Disabling SSH,I_114
Enabling/Disabling FTP Access,I_115
Enabling Active Directory,I_116
Specifying a Workgroup,I_117
Media,B_118
About Media Settings,I_119
About My Cloud and DLNA,I_120
Turning On/Off the DLNA Media Server,I_121
Blocking/Unblocking Access for a DLNA Device,I_122
Turning On/Off Access for iTunes,I_123
Refreshing the iTunes Server Database,I_124
Utilities,B_125
About Utilities,I_126
Performing Diagnostic Tests,I_127
Restoring Default Settings,I_128
Exporting System Settings,I_129
Importing System Settings,I_130
Rebooting My Cloud,I_131
Shutting Down My Cloud,I_132
Configuring Notifications,I_133
Firmware Updates,B_134
Updating My Cloud Automatically,I_135
Updating My Cloud Manually,I_136
Updating My Cloud From a File,I_137
Completing Common Tasks,B_138
About Common Tasks,I_139
Connecting the WD My Cloud Device to Your Network,I_140
Uploading Content to the My Cloud Drive,I_141
Accessing Content from a Smartphone or Tablet,I_142
Accessing Content at Home,I_143
Accessing Content from Your Laptop,I_144
Accessing Content from a Public Computer,I_145
Downloading WD Mobile Apps,I_146
Requesting Support,I_147
Getting Product Info,I_148
Troubleshooting,B_149
Recovering from Safe Mode,I_150
Restoring your System,I_151
