Welcome,I_0
Owner Basics,I_1
Managing Your Personal Cloud,B_2
Users,B_3
About Users,I_4
Setting Up Other Users,I_5
Adding a User Account,I_6
Adding/Changing a User Password,I_7
Viewing User Information,I_8
Setting User Quotas,I_9
Assigning User Quotas,I_10
Single User,B_11
Adding a User Account,I_12
Deleting a User Account,I_13
Groups,B_14
What Are User Groups?,I_15
Creating a User Group,I_16
Assigning Share Access for a Group,I_17
Viewing Group Information,I_18
Editing a Group Profile,I_19
Deleting a Group,I_20
Shares,B_21
About Shares,I_22
Creating a Share,I_23
Making a Share Private,I_24
Deleting a Share,I_25
Changing Access to a Share,I_26
Cloud Access,B_27
About Cloud Access,I_28
Setting Up Cloud Access,I_29
Adding a Mobile Device,I_30
Performing One-Time Setup for Secure Access,I_31
Removing a Device,I_32
Checking Remote Access Status,I_33
Signing Up for WDMyCloud.com,I_34
Backing Up your Personal Cloud,B_35
USB Backups,B_36
Creating a USB Backup,I_37
Deleting a USB Backup Job,I_38
Creating Front USB Port Backups with USB Copy Button,I_39
Ejecting a USB Drive,I_40
Remote Backups,B_41
Creating a Remote Backup,I_42
Recovering a Remote Backup,I_43
Internal Backups,B_44
Creating an Internal Backup,I_45
Initiating an Immediate Internal Backup,I_46
Viewing the Details of an Internal Backup Job,I_47
Modifying an Internal Backup Job,I_48
Deleting an Internal Backup Job,I_49
Cloud Backups,B_50
About Cloud Backups,I_51
Enabling an ElephantDrive Cloud Backup,I_52
Backing Up with ElephantDrive,I_53
Creating an Amazon S3 Cloud Backup,I_54
Camera Backups,B_55
Creating a Camera Backup,I_56
Managing Apps,B_57
What are Apps?,I_58
Adding an App,I_59
Manually Adding Apps,I_60
Deleting an App,I_61
Storage,B_62
RAID Storage,B_63
What is RAID Storage?,I_64
Viewing the Current RAID Mode,I_65
Changing the RAID Mode,I_66
Disk Status,B_67
About Disk Status,I_68
Viewing Hard Drive Information,I_69
Viewing S.M.A.R.T Data for your Hard Drive,I_70
ISCSI,B_71
What is ISCSI?,I_72
Creating an iSCSI Target,I_73
Enabling / Disabling an iSCSI Target,I_74
Enabling iSCS Client,I_75
Modifying an iSCSI Target,I_76
Deleting an iSCSI Target,I_77
Volume Virtualization,B_78
Creating Volume Virtualization,I_79
Connecting a Virtualized Volume to a Target,I_80
Modifying a Virtualized Volume,I_81
Configuring My Cloud  (Settings),B_82
 General,B_94
Device Profile,B_95
Changing the Device Name,I_96
Changing the Device Description,I_97
Language & Clock,B_98
Setting the Displayed Language,I_99
Setting the Date and Time,I_100
Setting the Date Format,I_101
Setting the Time Format,I_102
Cloud Access,B_103
About Cloud Access,I_104
Turning Cloud Access On/Off,I_105
Checking the Cloud Access Status of Your Device,I_106
Turning USB Content Availability On/Off,I_107
Turning Dashboard Cloud Access On/Off,I_108
Energy Saver,B_109
Turning Sleep Mode On/Off ,I_110
Setting Energy Saver Modes,I_111
Scheduling Device Shutdowns,I_112
Turning the Front LCD On/Off,I_113
Mac Backups,B_114
Backing Up Your Data with Apple Time Machine,I_115
Turning Off Time Machine Backups,I_116
Services,B_117
Clearing the Recycle Bin,I_118
Network,B_119
Network Profile,B_120
Determining the Device's MAC and IP Address,I_121
Network Services,B_122
Changing the IPv4 Network Mode,I_123
Changing the IPv6 Network Mode,I_124
Selecting Link Aggregation,I_125
Setting the Link Speed,I_126
Setting the Jumbo Frame,I_127
Enabling FTP Access,I_128
Turning the AFP Service On/Off,I_129
Turningf the NSF Service On/Off,I_130
Turning the WevDAV Service On/Off,I_131
Enabling SNMP,I_132
Enabling SSH,I_133
Enabling Dynamic DNS,I_134
Network UPS,B_135
Setting the Network UPS,I_136
Windows Services,B_137
Specifying a Workgroup,I_138
Setting the Local Master Browser,I_139
Setting the Max SMB Protocol,I_140
Enabling Share Aggregation,I_141
Enabling Active Directory,I_142
Setting LLTD Protocol,I_143
Media,B_144
DLNA,B_145
What is DLNA?,I_146
About the My Cloud Device and DLNA,I_147
Enabling / Disabling DLNA,I_148
Rescanning the DLNA Server Database,I_149
Rebuilding the DLNA Server Database,I_150
iTunes,B_151
Enabling / Disabling iTunes,I_152
Refreshing the iTunes Server Database,I_153
Utilities,B_154
System Diagnostics,B_155
Performing Diagnostic Tests,I_156
Viewing System Logs,I_157
Enabling Extended Logging,I_158
Flashing the System LED,I_159
Restore to Default,B_160
Restoring Device Default Settings,I_161
System Configuration,B_162
Saving a Configuration File,I_163
Importing a Configuration File,I_164
Device Maintenance,B_165
Shutting Down My Cloud,I_166
Rebooting the My Cloud Device,I_167
Viewing Device Uptime,I_168
Scan Disk,B_169
Scanning your My Cloud Device Disk for Errors,I_170
Format Disk,B_171
Formatting your My Cloud Device Disk,I_172
ISO Mounting,B_173
About ISO Mount,I_174
Creating an ISO Image,I_175
Creating an ISO Share,I_176
Viewing the Details of an ISO Share,I_177
Modifying an ISO Share,I_178
Deleting an ISO Share,I_179
Notifications,B_180
Configuring Notifications,I_181
Configuring Notification Levels,I_182
Firmware Updates,B_183
Auto Update,B_184
Updating My Cloud Automatically,I_185
Available Updates,B_186
Checking for Firmware Updates,I_187
Manual Update,B_188
Updating the My Cloud Device From a File,I_189
Completing Common Tasks,B_84
Connecting the My Cloud Device to Your Network,I_85
Uploading Content to the My Cloud Device,I_86
Accessing Content at Home,I_87
Accessing Content from a Smartphone or Tablet,I_88
Accessing Content from Your Laptop,I_89
Downloading WD Mobile Apps,I_90
Scheduling Device Shutdowns,I_91
Requesting Support,I_92
Getting Product Info,I_93
